{
  "module": {
    "name": "dummy",
    "version": "1.0.2",
    "description": "Beispielmodul für Entwickler",
    "module_url": "https://www.glancr.de/profiles/__dev-username__/__modulname__",
    "download_url": "https://www.glancr.de/profiles/__dev-username__/__modulname__/__modulname__.zip",
    "category": "Kategorie (vgl. glancr-Website)",
    "last_update": ""
  },
  "creator": {
    "name": "Mein Name",
    "contact": "myname@example.com",
    "website": "https://www.my-website.com",
    "profile": "https://www.glancr.de/profiles/__dev-username__"
  }
}